<?xml version="1.0" encoding="utf-8"?>
<!-- Generator: Adobe Illustrator 21.1.0, SVG Export Plug-In . SVG Version: 6.00 Build 0)  -->
<svg version="1.1" id="Layer_1" xmlns="http://www.w3.org/2000/svg" xmlns:xlink="http://www.w3.org/1999/xlink" x="0px" y="0px"
	 viewBox="0 0 297 115" style="enable-background:new 0 0 297 115;" xml:space="preserve">
<style type="text/css">
	.st0{fill:url(#SVGID_1_);}
	.st1{fill:url(#SVGID_2_);}
	.st2{fill:url(#SVGID_3_);}
	.st3{fill:url(#SVGID_4_);}
	.st4{fill:url(#SVGID_5_);}
	.st5{fill:url(#SVGID_6_);}
	.st6{fill:url(#SVGID_7_);}
	.st7{fill:url(#SVGID_8_);}
	.st8{fill:url(#SVGID_9_);}
</style>
<g id="jet_logo">
	<g>
		<path d="M21.4,62.8c19.9,0,45.8-4.3,55.9-25.1L93.6,3.6c1.1,2.4,2.8,4.9,5.4,6.9c3.8,3,8.8,4.9,14.3,5.4
			c-0.2,0.2-21.4,44.7-21.4,44.7h76L187,43.3c0,0-37.1,0-42,0c0.9-2.1,1.9-3.8,2.3-4.9c2.3,0,32.1,0,32.1,0l8.1-16.9
			c0,0-27.2,0-31.9,0c0.9-2.3,2.1-4.5,2.6-5.6c2.1,0,38.1,0,38.1,0l-2.1-8.1c0.7,0.9,1.7,1.9,2.8,2.6c4.3,3.6,10.5,5.4,16.7,5.4
			c0,0,2.4,0,2.8,0c0,0.4-21.8,44.7-21.8,44.7h44.8c0,0,20.1-42.2,21-44.3c2.1,0,26.3,0,26.3,0L294.1,0H10.7l1.1,2.4
			c1.3,2.6,2.8,5.6,6,8.1l0,0c4.3,3.6,10.5,5.4,16.9,5.4c0,0,5.6,0,8.1,0c-0.2,0.2-9.9,20.3-9.9,20.3c-3.4,7.3-13.7,7.3-21.9,7.3
			H9.8L0,62.8H21.4z"/>
		
			<linearGradient id="SVGID_1_" gradientUnits="userSpaceOnUse" x1="241.95" y1="57.8221" x2="241.95" y2="120.939" gradientTransform="matrix(1 0 0 -1 0 115.89)">
			<stop  offset="0" style="stop-color:#E8C929"/>
			<stop  offset="0.8571" style="stop-color:#FFF5C2"/>
		</linearGradient>
		<path class="st0" d="M291.3,1.7h-98.7c1.1,2.8,2.6,5.2,5.4,7.5c4.3,3.4,10.1,5.1,15.6,5.1h41.5l-37.3,3L197.5,59h40.9l21-44.3
			h26.3L291.3,1.7z"/>
		
			<linearGradient id="SVGID_2_" gradientUnits="userSpaceOnUse" x1="144.35" y1="57.3529" x2="144.35" y2="123.5662" gradientTransform="matrix(1 0 0 -1 0 115.89)">
			<stop  offset="0" style="stop-color:#E8C929"/>
			<stop  offset="0.8571" style="stop-color:#FFF5C2"/>
		</linearGradient>
		<path class="st1" d="M194,14.3l-3.2-12.6h-96c1.3,2.8,2.6,5.2,5.4,7.5c4.3,3.4,10.1,5.1,15.8,5.1h37.3l-38.6,2.8l-20,41.8h72.4
			l15.2-13.7h-40.1l4.1-8.4h31.9l6.4-13.3h-32.1l4.5-9.2C157,14.3,194,14.3,194,14.3z"/>
		
			<linearGradient id="SVGID_3_" gradientUnits="userSpaceOnUse" x1="47.75" y1="53.1178" x2="47.75" y2="120.1884" gradientTransform="matrix(1 0 0 -1 0 115.89)">
			<stop  offset="0" style="stop-color:#E8C929"/>
			<stop  offset="0.8571" style="stop-color:#FFF5C2"/>
		</linearGradient>
		<path class="st2" d="M92.7,1.7H13.5c1.3,2.8,2.6,5.2,5.4,7.5c4.3,3.4,10.1,5.1,15.8,5.1h46l-36.4,2.8L34.5,37
			c-3.9,8.3-14.4,8.4-23.6,8.4C10.1,46.7,2.8,61,2.8,61s4.3,0,18.6,0c22.1,0,45.2-5.6,54.2-24L92.7,1.7z"/>
		<g>
			<path d="M114.4,89.1c0-0.4,0-0.6,0-0.7c0-1.3-0.6-2.6-1.5-3.8c-0.9-1.1-2.3-2.1-3.8-2.6c2.1-0.6,3.9-1.3,5.8-2.4
				c2.1-1.3,3.8-3.2,4.3-5.8c0-0.6,0.2-0.9,0.2-1.5c0-1.5-0.6-2.8-1.5-3.9c-0.8-0.9-1.9-1.9-3-2.4c-5.4-2.8-14.4-3.2-22.3-3.2h-1.3
				h-5.1H53.1l0.9,2.3c0.6,1.7,1.5,3.6,3.4,5.3c1.9,1.7,4.5,3,7.1,3.4c-0.4,0.9-11.6,27.8-11.6,27.8h27.4c2.1,0,3.9,0,6-0.2
				c1.7,0,3.4-0.2,5.1-0.2C103,99.8,113.7,96.8,114.4,89.1z M88.7,87.4c0,0.6-0.9,1.1-2.4,1.3c-0.6,0.2-1.5,0.4-2.4,0.4
				c0.6-1.3,0.9-2.1,1.3-2.8c0.2,0,0.6,0,0.6,0c0.2,0,0.4,0,0.6,0c1.3,0,2.1,0.4,2.4,0.7C88.7,87,88.7,87.2,88.7,87.4z M93.2,74.5
				c-0.2,0.4-0.8,0.9-1.9,1.1c-0.5,0.2-1.3,0.4-2,0.4c0.4-0.7,0.7-2.1,0.9-2.2h0.6c0.2,0,0.4,0,0.6,0c1.1,0,1.7,0.4,1.9,0.6
				C93.2,74.5,93.2,74.5,93.2,74.5z"/>
			<path d="M136.9,67.4c0.9,0,1.9,0,2.8-0.2c4.7-0.6,8.8-2.4,8.8-5.8c0-3.8-4.1-5.6-8.8-6.2c-0.9-0.2-2.1-0.2-3.2-0.2
				c-5.8,0-11.6,1.9-11.6,6.2C124.9,65.1,129.4,67.4,136.9,67.4z"/>
			<path d="M249.3,71.7l-2.4-0.2c-0.2,0-14.1-0.6-28.3-0.6h-1.3c-12.4,0-25.7,7.7-25.7,19.1c0,7.5,4.5,11.1,14.1,11.1
				c3.8,0,7.1-1.1,9.8-2.4c-2.2,2.8-6.2,6.4-11.6,6.4c-6.6,0-10.3-1.9-10.3-1.9l-1.9-0.9l-0.6,1.9l-0.6,1.3l-1.1,3.4
				c-0.2,0.8-0.4,2.3,1.1,3.4c0.4,0.2,0.6,0.2,0.7,0.4c2.2,1.1,7.1,2.4,18.2,2.4c3.6,0,6.6-0.4,9.2-1.1
				c14.3-3.4,19.1-14.8,21.6-20.3l6.7-16.1L249.3,71.7z M222.8,81.4c-1.3,2.8-2.8,5.1-4.3,6.6c-1.3,1.3-2.8,2.1-3.9,2.1
				c-0.4,0-0.6,0-0.6,0c-0.2,0-0.2-0.2-0.2-0.4c0-0.7,1.3-5.8,4.7-7.9c0.9-0.6,1.9-0.9,3-0.9c0,0,0.9,0,1.7,0
				C223,81,222.8,81.4,222.8,81.4z"/>
			<path d="M295.2,78.4c-3.2-4.5-9.8-7.1-18.8-7.5c-2.1-0.2-3.9-0.2-5.8,0c-11.1,0.4-19.7,4.3-23.8,10.1c-0.7,1.1-1.3,2.3-1.7,3.4
				c-1.3,3.6-0.9,6.9,0.7,9.8c0.4,0.4,0.6,0.7,0.9,1.1c3.4,3.8,9.8,6.2,18,6.6c2.1,0.2,4.1,0.2,5.8,0c15.8-0.7,23.6-7.7,25.7-13.9
				C297.5,84.4,297.1,81,295.2,78.4z M274.6,84.8c-0.7,2.4-1.9,5.1-3.9,6.4c-0.8,0.4-1.7,0.6-2.8,0.6c-0.7-0.2-0.9-0.4-1.1-0.6
				s-0.6-1.3,0.4-4.3c0.6-1.5,1.7-4.1,3.6-5.4c0.9-0.4,1.7-0.6,2.8-0.6c0.6,0.2,1.1,0.4,1.3,0.6C275,81.6,275.2,82.5,274.6,84.8z"/>
			<polygon points="145,71.5 139.7,71.5 122.7,71.5 115,90.4 110.5,101.3 115,101.3 132.8,101.3 139.7,84 			"/>
			<path d="M190.4,85.7c0.9-2.3,1.5-4.1,1.5-5.8c0-1.9-0.6-3.4-1.5-4.7c-2.1-2.8-6.6-4.3-13.3-4.3l-29.8,0.6l-7.5,17.6l-5.1,12.2
				h5.1h17.1l4.1-8.8c2.1-4.5,3.6-7.9,5.4-9c0.6-0.6,1.7-0.9,3.2-1.1l-8.1,18.9h22.3l6.6-15.2V85.7z"/>
		</g>
		
			<linearGradient id="SVGID_4_" gradientUnits="userSpaceOnUse" x1="86.5441" y1="16.5135" x2="86.5441" y2="54.4961" gradientTransform="matrix(1 0 0 -1 0 115.89)">
			<stop  offset="0" style="stop-color:#E8C929"/>
			<stop  offset="0.8571" style="stop-color:#FFF5C2"/>
		</linearGradient>
		<path class="st3" d="M102.2,81.2c0.2,0,8.8-0.4,13.1-4.1c1.1-0.9,1.9-2.2,2.2-3.8c0.4-2.3-0.6-3.9-2.2-5.2
			c-4.9-3.4-15.9-3.8-22.7-3.8h-6.8H55.7c0.6,1.7,1.3,3.2,2.8,4.5C61,70.9,64,72,67,72h18.9h4.9c3,0,4.5,1.1,4.1,2.8
			c-0.6,1.9-3,3-6.4,3h-1.7l1.5-4.1h-2.4H66.4L55.5,99.6h24.8c1.9,0,3.6-0.2,5.6-0.2c11.6-0.6,25.9-2.8,26.8-10.5
			C113.3,83.7,102.4,81.2,102.2,81.2z M90.4,87.8c-0.2,1.5-2.1,2.4-4.5,2.8C85,90.8,84,91,82.9,91h-1.7l2.8-6.6h1.7h0.2
			C88.5,84.6,90.8,85.5,90.4,87.8z"/>
		<g>
			
				<linearGradient id="SVGID_5_" gradientUnits="userSpaceOnUse" x1="127.75" y1="17.535" x2="127.75" y2="59.5173" gradientTransform="matrix(1 0 0 -1 0 115.89)">
				<stop  offset="0" style="stop-color:#E8C929"/>
				<stop  offset="0.8571" style="stop-color:#FFF5C2"/>
			</linearGradient>
			<polygon class="st4" points="124,73.4 115.4,94.2 113.1,99.6 115.4,99.6 131.5,99.6 139.9,79.4 142.4,73.4 139.9,73.4 			"/>
			
				<linearGradient id="SVGID_6_" gradientUnits="userSpaceOnUse" x1="136.7011" y1="17.535" x2="136.7011" y2="59.5173" gradientTransform="matrix(1 0 0 -1 0 115.89)">
				<stop  offset="0" style="stop-color:#E8C929"/>
				<stop  offset="0.8571" style="stop-color:#FFF5C2"/>
			</linearGradient>
			<path class="st5" d="M139.9,57c-1.3-0.2-2.4-0.4-3.4-0.4c-4.3,0-9.9,1.3-9.9,4.5c0,3.4,5.8,4.5,10.3,4.5c0.9,0,1.9-0.2,3-0.2
				c3.6-0.6,6.9-1.9,6.9-4.1C146.9,58.7,143.5,57.4,139.9,57z"/>
		</g>
		
			<linearGradient id="SVGID_7_" gradientUnits="userSpaceOnUse" x1="270.6756" y1="15.7868" x2="270.6756" y2="47.6093" gradientTransform="matrix(1 0 0 -1 0 115.89)">
			<stop  offset="0" style="stop-color:#E8C929"/>
			<stop  offset="0.8571" style="stop-color:#FFF5C2"/>
		</linearGradient>
		<path class="st6" d="M276.3,72.6c-1.9-0.2-3.8-0.2-5.6,0c-13.3,0.6-21.6,6-23.8,12.4c-0.2,0.4-0.4,0.9-0.4,1.3
			c-0.6,1.7-0.4,3.4,0,4.7c1.5,5.6,9.2,8.6,18.4,9.2c2.1,0,4.1,0,5.8,0c14.3-0.7,22.1-6.8,24-12.8C297.3,79.2,290.2,73.4,276.3,72.6
			z M276.3,85.4c-0.9,3-2.4,6.6-5.6,7.7c-0.8,0.4-1.9,0.6-3,0.4c-3.4-0.2-3.4-3.4-2.2-7.1c0.9-2.6,2.6-5.6,5.3-6.8
			c0.9-0.4,1.9-0.6,3-0.4C277.2,79.5,277,82.4,276.3,85.4z"/>
		
			<linearGradient id="SVGID_8_" gradientUnits="userSpaceOnUse" x1="218.7657" y1="3.7995" x2="218.7657" y2="48.8358" gradientTransform="matrix(1 0 0 -1 0 115.89)">
			<stop  offset="0" style="stop-color:#E8C929"/>
			<stop  offset="0.8571" style="stop-color:#FFF5C2"/>
		</linearGradient>
		<path class="st7" d="M246.7,73.4l-0.2-0.2c-2.1,0-14.6-0.6-27.4-0.6h-1.9c-12,0-24,7.1-24,17.4c0,5.8,3,9.2,12.4,9.2
			c6.4,0,11.1-3,13.5-5.1c1.1-0.7,1.7-1.5,1.7-1.5l-1.7,3.4l-0.6,1.1c-1.1,2.3-6.8,9.6-14.8,9.6c-7.1,0-11.1-2.1-11.1-2.1l-1.7,4.5
			c-0.2,0.8,0,1.3,1.1,1.9c1.7,0.7,6.2,2.3,17.3,2.3c3.8,0,6.9-0.6,9.8-1.3c12-3.4,16.7-12.8,19.3-19.1l8.1-19L246.7,73.4z
			 M224.5,82.2c-1.9,3.8-3.8,6.2-5.4,7.7c-1.7,1.5-3.2,2.1-4.5,2.1c-1.5,0-2.4-0.4-2.4-2.3c0-1.3,1.9-8.2,6.9-10.1
			c0.7-0.2,1.5-0.4,2.4-0.4h4.5L224.5,82.2z"/>
		
			<linearGradient id="SVGID_9_" gradientUnits="userSpaceOnUse" x1="163.75" y1="17.0355" x2="163.75" y2="48.0127" gradientTransform="matrix(1 0 0 -1 0 115.89)">
			<stop  offset="0" style="stop-color:#E8C929"/>
			<stop  offset="0.8571" style="stop-color:#FFF5C2"/>
		</linearGradient>
		<path class="st8" d="M177.1,72.6c-5.3,0-28.7,0.7-28.7,0.7L140,93.6l-2.6,6h2.6h15.8L157,97c3.8-7.9,5.4-12.9,8.3-15
			c1.9-1.1,4.5-1.5,7.1-1.5l-8.2,19.1h18.6l6-14.3c0.9-2.1,1.3-3.8,1.3-5.4C190,75.4,186.6,72.6,177.1,72.6z"/>
	</g>
</g>
</svg>
